…
snp = left_join(snp, month_df, by = "month") %>% 
  select(-month) %>% 
  rename(month = month_name) %>% 
  relocate(year, month)
```

Merge datasets

``` r
complete = left_join(pols_month, snp, by = "year")

left_join(pols_month, unemploy, by = "month")
```

    ## # A tibble: 822 x 12
    ##    year.x month prez_gop gov_gop sen_gop rep_gop prez_dem gov_dem sen_dem
    ##    <chr>  <chr>    <dbl>   <dbl>   <dbl>   <dbl>    <dbl>   <dbl>   <dbl>
    ##  1 1947   Janu…        0      23      51     253        1      23      45
    ##  2 1947   Febr…        0      23      51     253        1      23      45
    ##  3 1947   March        0      23      51     253        1      23      45
    ##  4 1947   April        0      23      51     253        1      23      45
    ##  5 1947   May          0      23      51     253        1      23      45
    ##  6 1947   June         0      23      51     253        1      23      45
    ##  7 1947   July         0      23      51     253        1      23      45
    ##  8 1947   Augu…        0      23      51     253        1      23      45
    ##  9 1947   Sept…        0      23      51     253        1      23      45
    ## 10 1947   Octo…        0      23      51     253        1      23      45
    ## # … with 812 more rows, and 3 more variables: rep_dem <dbl>, year.y <dbl>,
    ## #   unemployment <dbl>
…
